{
  "extends": [
    "config:base"
  ],
  "packageRules": [
    {
      "updateTypes": ["minor", "patch", "pin", "digest"],
      "automerge": true
    },
    {
      "matchPackageNames": ["parcel"],
      "allowedVersions": "!/nightly/"
    },
    {
      "matchPackagePatterns": "jest",
      "groupName": ["jest packages"]
    }
  ]
}
